# MTL written from G:\gumi_CG\Hitachi_Elevator\Hitachi_Elevator\scenes\Human_CG\3DMetry_mark_walking_fbx\3dmetry_mark_walking.obj
newmtl 3dmetry_justin_sitting
Kd 0.588 0.588 0.588
Ns 4
d 1
illum 2
Ka 0 0 0
Ks 0.09 0.09 0.09
